(footprint "DWM1000" (version 20211014) (generator pcbnew)
  (layer "F.Cu")
  (tedit 5A5206A0)
  (descr "IEEE802.15.4-2011 UWB")
  (tags "UWB Module")
  (attr smd)
  (fp_text reference "REF**" (at -5.08 13.97) (layer "F.SilkS")
    (effects (font (size 1 1) (thickness 0.15)))
    (tstamp 3f932370-73ad-4239-9bc9-ccad5a77b71a)
  )
  (fp_text value "DWM1000" (at 0 7.5) (layer "F.Fab")
    (effects (font (size 1 1) (thickness 0.15)))
    (tstamp 88b8723b-8890-4b22-8dcf-8033b2bdfaa5)
  )
  (fp_text user "KEEP-OUT ZONE" (at 0 -8.89) (layer "Cmts.User")
    (effects (font (size 1 1) (thickness 0.15)))
    (tstamp 4ea93303-5821-408c-9519-717669cf305d)
  )
  (fp_text user "no components, traces, or copper on any layer" (at 0 -6.35) (layer "Cmts.User")
    (effects (font (size 0.5 0.5) (thickness 0.03175)))
    (tstamp 763f3003-5e1c-489f-95ea-ffe00c0ab1dc)
  )
  (fp_text user "${REFERENCE}" (at 0 0) (layer "F.Fab")
    (effects (font (size 1 1) (thickness 0.15)))
    (tstamp 2e025d66-de64-436a-9ec8-661bb614ce3a)
  )
  (fp_line (start -6 11.75) (end -6.75 11.75) (layer "F.SilkS") (width 0.15) (tstamp 26e5c074-211d-49fd-a7e2-8fa335ca17d9))
  (fp_line (start -6.75 -11.75) (end -6.75 -1.75) (layer "F.SilkS") (width 0.15) (tstamp 4dd220bb-3f36-4656-851f-b3e1f2cbca0c))
  (fp_line (start -6.75 11.75) (end -6.75 10) (layer "F.SilkS") (width 0.15) (tstamp 6bdd432c-0f73-4db2-a00a-24bdfdae20d8))
  (fp_line (start 6.75 11.75) (end 6.75 10) (layer "F.SilkS") (width 0.15) (tstamp 6f3ba654-0055-4418-a5e0-95f6872e29bb))
  (fp_line (start 6.75 -11.75) (end 6.75 -1.75) (layer "F.SilkS") (width 0.15) (tstamp 9fc75037-f85c-4e01-96a6-273ecbfab1d9))
  (fp_line (start 6 11.75) (end 6.75 11.75) (layer "F.SilkS") (width 0.15) (tstamp a1446862-552b-45f9-931d-1cfc19d86489))
  (fp_line (start -6.75 -11.75) (end 6.75 -11.75) (layer "F.SilkS") (width 0.15) (tstamp acff0beb-38c9-4a4d-bb4e-c3badffe880b))
  (fp_line (start 6.35 -1.27) (end -5.08 -12.7) (layer "Dwgs.User") (width 0.15) (tstamp 09d26e99-4e90-407e-8060-8caf77034ebd))
  (fp_line (start -8.89 -8.89) (end -1.27 -1.27) (layer "Dwgs.User") (width 0.15) (tstamp 0f158c3e-c01e-4170-a481-a68187ed6f17))
  (fp_line (start -8.89 -1.27) (end -8.89 -12.7) (layer "Dwgs.User") (width 0.15) (tstamp 476185eb-40d5-4289-a716-fa3f20959baf))
  (fp_line (start -1.27 -12.7) (end 8.89 -2.54) (layer "Dwgs.User") (width 0.15) (tstamp 5d205ff5-dec3-4630-a188-eda077b58c06))
  (fp_line (start -8.89 -5.08) (end -5.08 -1.27) (layer "Dwgs.User") (width 0.15) (tstamp 818bcc6e-114e-4980-a6a9-cded776f1858))
  (fp_line (start 2.54 -1.27) (end -8.89 -12.7) (layer "Dwgs.User") (width 0.15) (tstamp 9082c75e-63c4-4a40-bad7-67366e6bb66d))
  (fp_line (start 2.54 -12.7) (end 8.89 -6.35) (layer "Dwgs.User") (width 0.15) (tstamp a848d703-6cd6-4020-804c-f72f5f67d102))
  (fp_line (start 8.89 -12.7) (end 8.89 -1.27) (layer "Dwgs.User") (width 0.15) (tstamp d7321122-f995-47ea-a143-d6e82e64d5c5))
  (fp_line (start 8.89 -1.27) (end -8.89 -1.27) (layer "Dwgs.User") (width 0.15) (tstamp d9aebd39-927d-4fdf-bc14-0b736792dbd0))
  (fp_line (start -8.89 -12.7) (end 8.89 -12.7) (layer "Dwgs.User") (width 0.15) (tstamp e6c4069c-ed35-4fef-89ae-755a5226fc9f))
  (fp_line (start 6.35 -12.7) (end 8.89 -10.16) (layer "Dwgs.User") (width 0.15) (tstamp f8aaa854-c2fc-4a08-8dc4-7b4480f9acbd))
  (fp_line (start -7.85 12.85) (end 7.85 12.85) (layer "F.CrtYd") (width 0.05) (tstamp 4a3899ba-2819-49b7-8130-7a88045e057b))
  (fp_line (start -7.85 -11.85) (end -7.85 12.85) (layer "F.CrtYd") (width 0.05) (tstamp 4cc3db4b-345d-4a41-b370-4063d3ec15c3))
  (fp_line (start 7.85 -11.85) (end -7.85 -11.85) (layer "F.CrtYd") (width 0.05) (tstamp 587fc0a5-efc7-4aaa-82b6-2039401c2d3e))
  (fp_line (start 7.85 12.85) (end 7.85 -11.85) (layer "F.CrtYd") (width 0.05) (tstamp d332b89e-c4f1-4050-bf3c-cc3567179b22))
  (fp_line (start -6.5 11.5) (end 6.5 11.5) (layer "F.Fab") (width 0.15) (tstamp 08888b5a-e2cb-4b35-9ac9-b8916daf80bd))
  (fp_line (start -6.5 -11.5) (end -6.5 11.5) (layer "F.Fab") (width 0.15) (tstamp 0ded38dd-2263-4c72-ab51-5a83f243b5e6))
  (fp_line (start -3.81 -2.47) (end -3.81 -10.725) (layer "F.Fab") (width 0.15) (tstamp 229771a6-f8e3-40d3-bd2e-8d49166ed550))
  (fp_line (start -3.81 -10.725) (end 1.905 -10.725) (layer "F.Fab") (width 0.15) (tstamp 3e3c086f-864e-43bc-bf0f-cc2acfab7c73))
  (fp_line (start 5.715 -0.565) (end 5.715 10.865) (layer "F.Fab") (width 0.15) (tstamp 40fc18b6-05c9-4c96-8da2-0c60225daadd))
  (fp_line (start 5.715 10.865) (end -5.08 10.865) (layer "F.Fab") (width 0.15) (tstamp 4cceb313-5fb7-4ed6-ba90-864b9604f460))
  (fp_line (start 5.08 -1.2) (end 5.715 -0.565) (layer "F.Fab") (width 0.15) (tstamp 4de82b2a-4e61-4476-8ca0-51bbb13dcf22))
  (fp_line (start -5.715 -1.2) (end 4.445 -1.2) (layer "F.Fab") (width 0.15) (tstamp 654cfd63-a365-459a-a407-48bb91b1832b))
  (fp_line (start 6.5 -11.5) (end -6.5 -11.5) (layer "F.Fab") (width 0.15) (tstamp 67dc1b42-2abf-4377-92d5-5e3a45ad1f30))
  (fp_line (start -5.08 10.865) (end -5.715 10.23) (layer "F.Fab") (width 0.15) (tstamp 7878957c-9485-4996-af42-f95b82fe81f0))
  (fp_line (start 6.5 11.5) (end 6.5 -11.5) (layer "F.Fab") (width 0.15) (tstamp 82c52d60-e6ab-4433-8c9a-329bf334b8f6))
  (fp_line (start 1.905 -10.725) (end 1.905 -2.47) (layer "F.Fab") (width 0.15) (tstamp da3ba914-6096-4b82-8e82-5e87f4218bdc))
  (fp_line (start 1.905 -2.47) (end -3.81 -2.47) (layer "F.Fab") (width 0.15) (tstamp de6de087-5c0f-4af1-92bc-6f70d835df1d))
  (fp_line (start 4.445 -1.2) (end 5.08 -1.2) (layer "F.Fab") (width 0.15) (tstamp e1975df0-6621-4fa4-9a36-cf66ce91765b))
  (fp_line (start -5.715 10.23) (end -5.715 -1.2) (layer "F.Fab") (width 0.15) (tstamp e4c2f1ee-b8a7-485e-9bcf-93dcf88722b6))
  (pad "1" smd rect (at -6.3 -0.7988 90) (size 1 2.45) (layers "F.Cu" "F.Paste" "F.Mask") (tstamp dceda248-30f9-4bf7-bf2d-ccc037fa6a68))
  (pad "2" smd rect (at -6.3 0.6012 90) (size 1 2.45) (layers "F.Cu" "F.Paste" "F.Mask") (tstamp cee29c13-d08f-4ff7-8c18-b299fe0bbf30))
  (pad "3" smd rect (at -6.3 2.0012 90) (size 1 2.45) (layers "F.Cu" "F.Paste" "F.Mask") (tstamp fd9e21de-75ce-492b-a8c8-88dc93943a2f))
  (pad "4" smd rect (at -6.3 3.4012 90) (size 1 2.45) (layers "F.Cu" "F.Paste" "F.Mask") (tstamp ab3b2cad-da94-488e-90c1-65ac271efc1f))
  (pad "5" smd rect (at -6.3 4.8012 90) (size 1 2.45) (layers "F.Cu" "F.Paste" "F.Mask") (tstamp 1e09b64f-e918-4a7a-b0da-dc488f23555b))
  (pad "6" smd rect (at -6.3 6.2012 90) (size 1 2.45) (layers "F.Cu" "F.Paste" "F.Mask") (tstamp 386834e6-6680-4572-9b46-caa36177357a))
  (pad "7" smd rect (at -6.3 7.6012 90) (size 1 2.45) (layers "F.Cu" "F.Paste" "F.Mask") (tstamp ca751396-3a98-4d8e-ab2f-9d8b0493999a))
  (pad "8" smd rect (at -6.3 9.0012 90) (size 1 2.45) (layers "F.Cu" "F.Paste" "F.Mask") (tstamp eb63d3a7-97d1-46d8-9ad0-d1ede195e150))
  (pad "9" smd rect (at -4.9 11.2962) (size 1 2.45) (layers "F.Cu" "F.Paste" "F.Mask") (tstamp ee9c7f13-2495-49c8-afbc-20059bf6605c))
  (pad "10" smd rect (at -3.5 11.2962) (size 1 2.45) (layers "F.Cu" "F.Paste" "F.Mask") (tstamp 05ca5f1c-640a-4539-bbf2-380c083dadb4))
  (pad "11" smd rect (at -2.1 11.2962) (size 1 2.45) (layers "F.Cu" "F.Paste" "F.Mask") (tstamp 3c8a94ec-9675-4ae1-b7ec-47c1a43df4d0))
  (pad "12" smd rect (at -0.7 11.2962) (size 1 2.45) (layers "F.Cu" "F.Paste" "F.Mask") (tstamp 3ed38ad7-063d-4fc1-be5b-f99aac8cab9c))
  (pad "13" smd rect (at 0.7 11.2962) (size 1 2.45) (layers "F.Cu" "F.Paste" "F.Mask") (tstamp 684ae9dd-3f4f-41ad-8559-2e7e025c5d04))
  (pad "14" smd rect (at 2.1 11.2962) (size 1 2.45) (layers "F.Cu" "F.Paste" "F.Mask") (tstamp 78089154-a372-4070-a89e-8968e2626c1a))
  (pad "15" smd rect (at 3.5 11.2962) (size 1 2.45) (layers "F.Cu" "F.Paste" "F.Mask") (tstamp 1ce9651d-d259-4cd0-b28d-71fc31bc6cef))
  (pad "16" smd rect (at 4.9 11.2962) (size 1 2.45) (layers "F.Cu" "F.Paste" "F.Mask") (tstamp 112bb67a-4643-4369-ac22-98ce900a10d2))
  (pad "17" smd rect (at 6.3 9 90) (size 1 2.45) (layers "F.Cu" "F.Paste" "F.Mask") (tstamp b3a2e8f6-7113-496d-8a33-28e69200057b))
  (pad "18" smd rect (at 6.3 7.6 90) (size 1 2.45) (layers "F.Cu" "F.Paste" "F.Mask") (tstamp b4f146a0-2f30-43ae-be6f-5a5256df5a7b))
  (pad "19" smd rect (at 6.3 6.2012 90) (size 1 2.45) (layers "F.Cu" "F.Paste" "F.Mask") (tstamp e26d26c1-a06e-4068-8735-df104edcbcb1))
  (pad "20" smd rect (at 6.3 4.8012 90) (size 1 2.45) (layers "F.Cu" "F.Paste" "F.Mask") (tstamp c09c6e27-7b72-4982-9004-4c059228b17b))
  (pad "21" smd rect (at 6.3 3.4012 90) (size 1 2.45) (layers "F.Cu" "F.Paste" "F.Mask") (tstamp ad82aacb-6ce4-4b92-8b91-b19e8482e0d1))
  (pad "22" smd rect (at 6.3 2.0012 90) (size 1 2.45) (layers "F.Cu" "F.Paste" "F.Mask") (tstamp 6538467c-3aed-4f8d-967b-d2ad6cce4636))
  (pad "23" smd rect (at 6.3 0.6012 90) (size 1 2.45) (layers "F.Cu" "F.Paste" "F.Mask") (tstamp 8501bedc-d18c-472e-a584-20643aa484f2))
  (pad "24" smd rect (at 6.3 -0.7988 90) (size 1 2.45) (layers "F.Cu" "F.Paste" "F.Mask") (tstamp d65b95e6-f0f7-4ee3-978b-b0fab8273b1f))
  (model "${KICAD6_3DMODEL_DIR}/RF_Module.3dshapes/DWM1000.wrl"
    (offset (xyz 0 0 0))
    (scale (xyz 1 1 1))
    (rotate (xyz 0 0 0))
  )
)
